{"page":1,"total_results":19604,"total_pages":981,"results":[{"vote_count":6261,"id":269149,"video":false,"vote_average":7.7,"title":"Zootopia - Essa Cidade é o Bicho","popularity":451.221729,"poster_path":"\/cp9KdbU76GOMUPXBBnINKUHs4ds.jpg","original_language":"en","original_title":"Zootopia","genre_ids":[16,12,10751,35],"backdrop_path":"\/mhdeE1yShHTaDbJVdWyTlzFvNkr.jpg","adult":false,"overview":"Judy Hopps é a pequena coelha de uma fazenda isolada, filha de agricultores que plantam cenouras há décadas. Mas ela tem sonhos maiores: pretende se mudar para a cidade grande, Zootopia, onde todas as espécies de animais convivem em harmonia, na intenção de se tornar a primeira coelha policial. Judy enfrenta o preconceito e as manipulações dos outros animais, mas conta com a ajuda inesperada da raposa Nick Wilde, conhecida por sua malícia e suas infrações. A inesperada dupla se dedica à busca de um animal desaparecido, descobrindo uma conspiração que afeta toda a cidade.","release_date":"2016-02-11"},{"vote_count":7100,"id":198663,"video":false,"vote_average":7,"title":"Maze Runner: Correr ou Morrer","popularity":438.259688,"poster_path":"\/3o6IwZbd1rZy8a6kPzAWYXKDHIL.jpg","original_language":"en","original_title":"The Maze Runner","genre_ids":[28,9648,878,53],"backdrop_path":"\/lkOZcsXcOLZYeJ2YxJd3vSldvU4.jpg","adult":false,"overview":"Num cenário pós-apocalíptico, uma comunidade de rapazes descobre que estão presos num labirinto misterioso. Juntos, terão de descobrir como escapar, resolver o enigma e revelar o arrepiante segredo acerca de quem os colocou ali e por que razão.","release_date":"2014-09-10"},{"vote_count":3288,"id":281338,"video":false,"vote_average":6.8,"title":"Planeta dos Macacos: A Guerra","popularity":258.760088,"poster_path":"\/kG4ZxEBVw4eS23QSXG0PaUaDoEx.jpg","original_language":"en","original_title":"War for the Planet of the Apes","genre_ids":[18,878,10752],"backdrop_path":"\/ulMscezy9YX0bhknvJbZoUgQxO5.jpg","adult":false,"overview":"Humanos e macacos cruzam os caminhos novamente. César e seu grupo são forçados a entrar em uma guerra contra um exército de soldados liderados por um impiedoso coronel. Depois que vários macacos perdem suas vidas no conflito, César luta contra seus instintos e parte em busca de vingança. Dessa jornada, o futuro do planeta poderá estar em jogo.","release_date":"2017-07-11"},{"vote_count":2960,"id":214756,"video":false,"vote_average":6.2,"title":"Ted 2","popularity":247.484498,"poster_path":"\/A7HtCxFe7Ms8H7e7o2zawppbuDT.jpg","original_language":"en","original_title":"Ted 2","genre_ids":[35],"backdrop_path":"\/nkwoiSVJLeK0NI8kTqioBna61bm.jpg","adult":false,"overview":"Completamente apaixonado, Ted (Seth MacFarlane) decide se casar com Tami-Lynn (Jessica Barth). Entretanto, não demora muito para que o casal entre em crise. Querendo evitar um possível divórcio, Ted resolve ter um filho. Tami-Lynn logo fica empolgada com a ideia, o que faz com que o casal inicie uma busca sobre quem poderia ser o doador de esperma ideal para o bebê. Seu grande amigo John (Mark Wahlberg) o ajuda na tarefa, mas logo Ted descobre que não pode ter um filho porque, legalmente, ele não é uma pessoa, e sim uma propriedade. Começa então uma batalha judicial em que o urso de pelúcia tenta provar que merece ser considerado um cidadão como qualquer outro ser humano.","release_date":"2015-06-25"},{"vote_count":5019,"id":374720,"video":false,"vote_average":7.4,"title":"Dunkirk","popularity":246.77309,"poster_path":"\/3ldmcbmoQ6A9dUwphrwWxXIYQZM.jpg","original_language":"en","original_title":"Dunkirk","genre_ids":[28,18,36,53,10752],"backdrop_path":"\/4yjJNAgXBmzxpS6sogj4ftwd270.jpg","adult":false,"overview":"Na Operação Dínamo, mais conhecida como a Evacuação de Dunquerque, soldados aliados da Bélgica, do Império Britânico e da França são rodeados pelo exército alemão e devem ser resgatados durante uma feroz batalha no início da Segunda Guerra Mundial. A história acompanha três momentos distintos: uma hora de confronto no céu, onde o piloto Farrier (Tom Hardy) precisa destruir um avião inimigo, um dia inteiro em alto mar, onde o civil britânico Dawson (Mark Rylance) leva seu barco de passeio para ajudar a resgatar o exército de seu país, e uma semana na praia, onde o jovem soldado Tommy (Fionn Whitehead) busca escapar a qualquer preço.","release_date":"2017-07-19"},{"vote_count":4332,"id":216015,"video":false,"vote_average":5.3,"title":"Cinquenta Tons de Cinza","popularity":234.612939,"poster_path":"\/wn33DYwP21lyOaZ9m6vXQviPOGb.jpg","original_language":"en","original_title":"Fifty Shades of Grey","genre_ids":[18,10749,53],"backdrop_path":"\/zAd0MjURkOvJynIsqmLMBcICxUt.jpg","adult":false,"overview":"Anastasia Steele (Dakota Johnson) é uma estudante de literatura de 21 anos, recatada e virgem. Uma dia ela deve entrevistar para o jornal da faculdade o poderoso magnata Christian Grey (Jamie Dornan). Nasce uma complexa relação entre ambos: com a descoberta amorosa e sexual, Anastasia conhece os prazeres do sadomasoquismo, tornando-se o objeto de submissão do sádico Grey.","release_date":"2015-02-11"},{"vote_count":124,"id":335777,"video":false,"vote_average":5.8,"title":"O Que Será de Nozes? 2","popularity":213.059711,"poster_path":"\/pO0JjqDh7O7FhKqptZ768V8lNLF.jpg","original_language":"en","original_title":"The Nut Job 2: Nutty by Nature","genre_ids":[10751,16,12,35],"backdrop_path":"\/bd1X5nNrrAHVGG0MxsAeCOPPh1w.jpg","adult":false,"overview":"Quando o malvado prefeito de Oakton decide demolir o Liberty Park e construir um perigoso parque de diversões no local, Surly Squirrel e seus amigos precisam se reunir para salvar sua casa, derrotar o prefeito e retomar o parque.","release_date":"2017-08-11"},{"vote_count":2722,"id":339846,"video":false,"vote_average":6.1,"title":"Baywatch: S.O.S Malibu","popularity":193.10589,"poster_path":"\/nnBbMYXYXs814ZGoIBSoKctwh85.jpg","original_language":"en","original_title":"Baywatch","genre_ids":[28,35],"backdrop_path":"\/t6TL7V9IsT4Ktx6YO8b1UYj3agd.jpg","adult":false,"overview":"Mitch Buchannon (Dwayne Johnson) é um devoto salva-vidas, orgulhoso do seu trabalho. Enquanto está treinando o novo e exibido recruta Matt Brody (Zac Efron), os dois descobrem uma conspiração criminosa no local que pode ameaçar o futuro da baía.","release_date":"2017-05-12"},{"vote_count":1859,"id":396422,"video":false,"vote_average":6.4,"title":"Annabelle 2: A Criação do Mal","popularity":154.173524,"poster_path":"\/AtlcH0f8mEQGKVIBSgV4GgkTZMr.jpg","original_language":"en","original_title":"Annabelle: Creation","genre_ids":[27,9648,53],"backdrop_path":"\/3L5gfIKt2RK9vnCiLgWTAzkhQWC.jpg","adult":false,"overview":"Anos após a trágica morte de sua filha, um habilidoso artesão de bonecas e sua esposa decidem, por caridade, acolher em sua casa uma freira e dezenas de meninas desalojadas de um orfanato. Atormentado pelas lembranças traumáticas, o casal ainda precisa lidar com um amedrontador demônio do passado: Annabelle, criação do artesão.","release_date":"2017-08-03"},{"vote_count":4207,"id":339403,"video":false,"vote_average":7.4,"title":"Em Ritmo De Fuga","popularity":152.683389,"poster_path":"\/1rYTtQ14rPB3KOgk5TjkUqiQFch.jpg","original_language":"en","original_title":"Baby Driver","genre_ids":[28,80],"backdrop_path":"\/goCvLSUFz0p7k8R10Hv4CVh3EQv.jpg","adult":false,"overview":"O jovem Baby (Ansel Elgort) tem uma mania curiosa: precisa ouvir músicas o tempo todo para silenciar o zumbido que perturba seus ouvidos desde um acidente na infância. Excelente motorista, ele é o piloto de fuga oficial dos assaltos de Doc (Kevin Spacey), mas não vê a hora de deixar o cargo, principalmente depois que se vê apaixonado pela garçonete Debora (Lily James).","release_date":"2017-06-28"},{"vote_count":2656,"id":354912,"video":false,"vote_average":7.8,"title":"Viva - A Vida é uma Festa","popularity":149.94504,"poster_path":"\/6oNm06TPz2vGiPc2I52oXW3JwPS.jpg","original_language":"en","original_title":"Coco","genre_ids":[12,16,35,10751],"backdrop_path":"\/askg3SMvhqEl4OL52YuvdtY40Yb.jpg","adult":false,"overview":"Miguel é um menino de 12 anos que quer em ser um músico famoso, mas deve lidar sua família desaprova seu sonho. Determinado a virar o jogo, o jovem  acaba desencadeando uma série de eventos ligados a um mistério de 100 anos. A aventura, com inspiração no feriado mexicano do Dia dos Mortos, acaba gerando uma extraordinária reunião familiar.","release_date":"2017-10-27"},{"vote_count":334,"id":431530,"video":false,"vote_average":6.1,"title":"Perfeita é a Mãe 2","popularity":149.017042,"poster_path":"\/1SsrqmxRiO8cJCJ7POAjI69OsQJ.jpg","original_language":"en","original_title":"A Bad Moms Christmas","genre_ids":[35],"backdrop_path":"\/aIF2xRhE7iGxQd6ITGNrwYdGB9e.jpg","adult":false,"overview":"Amy (Mila Kunis), Kiki (Kristen Bell) e Carla (Kathryn Hahn) lidam com o stress familiar da época natalina e com as visitas de suas respectivas mães. Será que elas conseguirão jogar tudo para o alto novamente?","release_date":"2017-11-01"},{"vote_count":7588,"id":284052,"video":false,"vote_average":7.2,"title":"Doutor Estranho","popularity":145.999946,"poster_path":"\/dsAQmTOCyMDgmiPp9J4aZTvvOJP.jpg","original_language":"en","original_title":"Doctor Strange","genre_ids":[28,12,14,878],"backdrop_path":"\/tFI8VLMgSTTU38i8TIsklfqS9Nl.jpg","adult":false,"overview":"Stephen Strange (Benedict Cumberbatch) leva uma vida bem sucedida como neurocirurgião. Sua vida muda completamente quando sofre um acidente de carro e fica com as mãos debilitadas. Devido a falhas da medicina tradicional, ele parte para um lugar inesperado em busca de cura e esperança, um misterioso enclave chamado Kamar-Taj, localizado em Katmandu. Lá descobre que o local não é apenas um centro medicinal, mas também a linha de frente contra forças malignas místicas que desejam destruir nossa realidade. Ele passa a treinar e adquire poderes mágicos, mas precisa decidir se vai voltar para sua vida comum ou defender o mundo.","release_date":"2016-10-25"},{"vote_count":6290,"id":315635,"video":false,"vote_average":7.3,"title":"Homem-Aranha: De Volta ao Lar","popularity":137.84424,"poster_path":"\/iLhIoKnj7G9I5NyknnS2YAxMizS.jpg","original_language":"en","original_title":"Spider-Man: Homecoming","genre_ids":[28,12,35,878],"backdrop_path":"\/vc8bCGjdVp0UbMNLzHnHSLRbBWQ.jpg","adult":false,"overview":"Depois de atuar ao lado dos Vingadores, chegou a hora do pequeno Peter Parker (Tom Holland) voltar para casa e para a sua vida, já não mais tão normal. Lutando diariamente contra pequenos crimes nas redondezas, ele pensa ter encontrado a missão de sua vida quando o terrível vilão Abutre (Michael Keaton) surge amedrontando a cidade. O problema é que a tarefa não será tão fácil como ele imaginava.","release_date":"2017-07-05"},{"vote_count":862,"id":391713,"video":false,"vote_average":7.7,"title":"Lady Bird - A Hora de Voar","popularity":133.566809,"poster_path":"\/mznFQ3s9oOy73zLN87cpWX3Cg04.jpg","original_language":"en","original_title":"Lady Bird","genre_ids":[35,18],"backdrop_path":"\/2ByWxoMbfE3pxztCJn5qTJ5Ui2Y.jpg","adult":false,"overview":"Christine McPherson está no último ano do colégio e o que mais deseja é ir fazer faculdade longe de Sacramento, Califórnia, ideia rejeitada por sua mãe. Lady Bird, como a garota de forte personalidade exige ser chamada, não se dá por vencida e leva o plano de ir embora adiante mesmo assim. Enquanto a hora não chega, ela se divide entre as obrigações estudantis no colégio católico, o primeiro namoro, típicos rituais de passagem para a vida adulta e inúmeros desentendimentos com a progenitora.","release_date":"2017-09-08"},{"vote_count":4037,"id":294254,"video":false,"vote_average":6.5,"title":"Maze Runner: Prova de Fogo","popularity":131.261615,"poster_path":"\/1cgkyOBXTWhyg7iMQYL6zT04sbo.jpg","original_language":"en","original_title":"Maze Runner: The Scorch Trials","genre_ids":[28],"backdrop_path":"\/iapRFMGKvN9tsjqPlN7MIDTCezG.jpg","adult":false,"overview":"Após escapar do labirinto, Thomas (Dylan O'Brien) e os garotos que o acompanharam em sua fuga da Clareira precisam agora lidar com uma realidade bem diferente: a superfície da Terra foi queimada pelo sol e eles precisam lidar com criaturas disformes chamadas Cranks, que desejam devorá-los vivos.","release_date":"2015-09-09"},{"vote_count":6782,"id":346364,"video":false,"vote_average":7.1,"title":"It: A Coisa","popularity":128.264695,"poster_path":"\/uYxz0lIiNgErrPhQbSjUdwYxtFc.jpg","original_language":"en","original_title":"It","genre_ids":[18,27,53],"backdrop_path":"\/tcheoA2nPATCm2vvXw2hVQoaEFD.jpg","adult":false,"overview":"Um grupo de sete adolescentes de Derry, uma cidade no Maine, formam o auto-intitulado \"Losers Club\", o clube dos perdedores. A pacata rotina da cidade é abalada quando crianças começam a desaparecer e tudo o que pode ser encontrado delas são partes de seus corpos. Logo, os integrantes do \"Losers Club\" acabam ficando face a face com o responsável pelos crimes: o palhaço Pennywise.","release_date":"2017-09-05"},{"vote_count":1627,"id":390043,"video":false,"vote_average":6.7,"title":"Dupla Explosiva","popularity":127.388864,"poster_path":"\/n866Qf15ZEiTvGFjN1Q3bJO7NbV.jpg","original_language":"en","original_title":"The Hitman's Bodyguard","genre_ids":[28,35],"backdrop_path":"\/7KsqfXDECZMryX1Rv4RKsT7SIjQ.jpg","adult":false,"overview":"O principal guarda-costas do mundo (Ryan Reynolds) possui um novo cliente: um assassino de aluguel (Samuel L. Jackson) que precisa testemunhar na Corte Internacional de Justiça. Por anos eles estavam em lados opostos de um tiro, mas agora eles estão presos juntos. Eles precisam colocar as diferenças de lado para chegarem ao julgamento a tempo.","release_date":"2017-08-16"},{"vote_count":278,"id":393345,"video":false,"vote_average":5.1,"title":"O Culto de Chucky","popularity":125.381817,"poster_path":"\/cxmuO9N3kO4TjE4C6BMUBKom6jh.jpg","original_language":"en","original_title":"Cult of Chucky","genre_ids":[27,53],"backdrop_path":"\/lle3uwidvcWxBV6JDhb1NlVGxdE.jpg","adult":false,"overview":"Confinada em um hospício para criminosos insanos pelos últimos quatro anos, Nica Pierce (Fiona Dourif) é erroneamente convencida de que ela, e não Chucky, matou sua família inteira. Porém, quando seu terapeuta começa a usar um boneco Good Guy para as sessões, uma série de assassinatos começa a acontecer e Nica percebe que ela pode não ser tão louca assim.","release_date":"2017-09-23"},{"vote_count":140,"id":339404,"video":false,"vote_average":4.9,"title":"The Layover","popularity":120.975135,"poster_path":"\/kb9osnqanXRpkpm1bnSqAhKoq5T.jpg","original_language":"en","original_title":"The Layover","genre_ids":[35],"backdrop_path":"\/ibianpvL865w7rBPAg3sPlEXUyh.jpg","adult":false,"overview":"Duas grandes amigas de infância (Lea Michele e Kate Upton) decidem fazer uma viagem juntas. Mas quando estão paradas na escala, uma ameaça de furacão faz com que fiquem presas no aeroporto. Enquanto esperam pelo próximo voo, elas conhecem um homem, e as duas se apaixonam por ele.","release_date":"2017-09-01"}]}
